TIPO;CODIGO LOJA;DESCRICAO LOJA;IP BASE;LOGIN BANCO;SENHA BIA_ETL;DATABASE
PROPRIA;11;LOJA1;10.52.31.10;USUARIO1;%%B4PDy7!=i*B3;BASE_1
PROPRIA;12;LOJA2;10.52.32.10;USUARIO2;gKTphy%9X@XEzt;BASE_2
PROPRIA;13;LOJA3;10.52.33.10;USUARIO3;#.x#)m2@QGr.lU;BASE_3