{
  "scriptFile": "__init__.py",
  "bindings": [
    {
      "name": "linxposTimer",
      "type": "timerTrigger",
      "direction": "in",
      "schedule": "*/30 * 09-22 * * *"
    },
    {
      "name": "starter",
      "type": "durableClient",
      "direction": "in"
    }
  ]
}